4.3vis_tech
…
pca_model$model[[1]]$rotation %>% 
  as_tibble() %>% 
  bind_cols(AU = colnames(pca_data)) %>% 
  arrange(PC1, PC2) %>% 
  select(AU, PC1, PC2)

## # A tibble: 35 x 3
##    AU          PC1      PC2
##    <chr>     <dbl>    <dbl>
##  1 AU45_c -0.349    0.0522 
##  2 AU45_r -0.320    0.0325 
##  3 AU05_c -0.229    0.213  
##  4 AU12_c -0.0750   0.0109 
##  5 AU25_r -0.0182   0.141  
##  6 AU05_r -0.0114   0.227  
##  7 AU14_c -0.00481 -0.00522
##  8 AU15_r  0.0101  -0.0192 
##  9 AU02_c  0.0276  -0.135  
## 10 AU25_c  0.0290   0.292  
## #  with 25 more rows
…
